####################################################################
# $Header$
#
# When you add an entry to the top of this file, add your name, the date, and
# an explanation of why something is getting masked. Please be extremely
# careful not to commit atoms that are not valid, as it can cause large-scale
# breakage, especially if it ends up in the daily snapshot.
#
## Example:
##
## # Dev E. Loper <developer@gentoo.org> (28 Jun 2012)
## # Masking  these versions until we can get the
## # v4l stuff to work properly again
## =media-video/mplayer-0.90_pre5
## =media-video/mplayer-0.90_pre5-r1
#
# - Best last rites (removal) practices -
# Include the following info:
# a) reason for masking
# b) bug # for the removal (and yes you should have one)
# c) date of removal (either the date or "in x days")
#
## Example:
##
## # Dev E. Loper <developer@gentoo.org> (25 Jan 2013)
## # Masked for removal in 30 days.  Doesn't work
## # with new libfoo. Upstream dead, gtk-1, smells
## # funny. (bug #987654)
## app-misc/some-package

#--- END OF EXAMPLES ---

# Sergey Popov <pinkbyte@gentoo.org> (20 Mar 2014)
# Security mask of vulnerable versions, wrt bug #424167
<net-nds/openldap-2.4.35

# Mikle Kolyada <zlogene@gentoo.org> (19 Mar 2014)
# Dead upstream (no releases since 2006),
# GUI no longer supported (bug #250971).
# Removal in 30 days.
app-misc/bins

# Samuli Suominen <ssuominnen@gentoo.org> (19 Mar 2014)
# The ebuild is appending CFLAGS -O0 to prevent segfaulting
# on 64bit, a workaround that doesn't always work.
# The ebuild fails to build wrt bug #500408, but it's no use
# to fix the build if the end result is just constantly crashing.
# Removal in 30 days, use alternative panels like x11-misc/fbpanel
x11-misc/suxpanel

# Manuel Rüger <mrueg@gentoo.org> (16 Mar 2014)
# Ruby 1.8 has no longer been supported upstream since July 2013 and
# has known security issues (bug #492282). Ruby packages in general
# are no longer compatible with ruby 1.8. Removal is tracked in bug
# 434064.
#
# This mask also includes all packages still depending in ruby 1.8.
# Removal in 30 days
dev-lang/ruby:1.8
virtual/rubygems:ruby18
virtual/ruby-rdoc:ruby18
virtual/ruby-ssl:ruby18
virtual/ruby-threads:ruby18
app-misc/alexandria
dev-ruby/fastercsv
dev-ruby/oniguruma
dev-ruby/rand
dev-ruby/revolution
dev-ruby/ruby-taglib
dev-ruby/rubytorrent
dev-ruby/sary-ruby
dev-ruby/system_timer
<app-text/migemo-0.40_p2
=dev-ruby/mecab-ruby-0.98-r1

# Ulrich Müller <ulm@gentoo.org> (15 Mar 2014)
# No license, unknown copyright holder. No Gentoo maintainer.
# Masked for removal in 30 days, bug 465784.
net-ftp/pftpfxp

# Lars Wendler <polynomial-c@gentoo.org> (14 Mar 2014)
# Masked for security reasons.
# Do NOT remove this mask or the affected packages without speaking to
# bonsaikitten first! You have been warned!
<net-fs/samba-3.6

# Michael Palimaka <kensington@gentoo.org> (14 Mar 2014)
# Not compatible with latest KDE. Backend script can't
# fetch videos anymore. Dead upstream.
# Masked for removal in 30 days. Bug #504550.
kde-misc/youtube-servicemenu

# Ulrich Müller <ulm@gentoo.org> (13 Mar 2014)
# No license, therefore not redistributable. SRC_URI dead.
# Gentoo live media don't use gdm any more.
# Masked for removal in 30 days, bug 446794.
x11-themes/gdm-themes-livecd

# Ulrich Müller <ulm@gentoo.org> (13 Mar 2014)
# No reverse dependencies. Use dev-libs/libbsd instead.
# Masked for removal in 60 days, bug 504456.
dev-libs/clens

# Michał Górny <mgorny@gentoo.org> (12 Mar 2014)
# Masked for testing, and binary package build.
>=dev-python/pypy-2.2
>=virtual/pypy-2.2

# Samuli Suominen <ssuominen@gentoo.org> (11 Mar 2014)
# Xfce 4.12 unannounced prerelease, use at your own risk
=dev-util/xfce4-dev-tools-4.11*
=xfce-base/garcon-0.3*
=xfce-base/libxfce4ui-4.11*
=xfce-base/libxfce4util-4.11*
=xfce-base/xfce4-appfinder-4.11*
=xfce-base/xfce4-panel-4.11*
=xfce-base/xfce4-session-4.11*
=xfce-base/xfce4-settings-4.11*
=xfce-base/xfdesktop-4.11*
=xfce-base/xfwm4-4.11*
=media-video/parole-0.6*
=xfce-extra/xfce4-xkb-plugin-0.7*
=xfce-extra/xfce4-indicator-plugin-2*
=media-sound/pragha-1.3*

# Manuel Rüger <mrueg@gentoo.org> (06 Mar 2014)
# Mask further ruby18-only packages
# Removal in 30 days
net-proxy/swiftiply
www-servers/mongrel

# Michał Górny <mgorny@gentoo.org> (06 Mar 2014)
# Compatibility packages masked for removal in 30 days.
<dev-lang/python-exec-0.3.1-r1:0
<dev-lang/python-exec-2.0.1-r1:2

# Manuel Rüger <mrueg@gentoo.org> (05 Mar 2014)
# Mask further ruby18-only packages
# Removal in 30 days
dev-ruby/locale_rails
dev-ruby/parsetree
dev-ruby/pry:0
dev-ruby/rack:0
dev-ruby/rspec-rails:0
dev-ruby/ruby2ruby:0
dev-ruby/rubymail

# Michał Górny <mgorny@gentoo.org> (05 Mar 2014)
# Seems to cause more trouble than it fixes. Bugs #503470, #503472.
=sys-apps/systemd-208.277

# Mike Gilbert <floppym@gentoo.org> (04 Mar 2014)
# Dev channel releases are only for people who are developers or want more
# experimental features and accept a more unstable release.
www-plugins/chrome-binary-plugins:unstable

# Samuli Suominen <ssuominen@gentoo.org> (03 Mar 2014)
# gnome-extra/polkit-gnome is the "GTK+ polkit agent" and has no extra
# dependencies that installing lxde-base/lxpolkit would solve, thus
# the only motivation for creation of lxpolkit was to drop the word
# 'gnome' from the package's name. The packages are near identical
# by the outlook, determined by the used GTK+ theme.
#
# Raise yourself above the word 'gnome' and install the de facto GTK+ agent:
# emerge -C lxpolkit
# emerge -1 polkit-gnome
#
# Removal will happen at later date, but since there is no hurry, give it
# until rest of the year.
lxde-base/lxpolkit

# Ulrich Müller <ulm@gentoo.org> (1 Mar 2014)
# Version 0.3 does not work with Emacs 24; git master
# also fails, because of changed Delicious API.
# According to upstream, a new release is "unlikely".
# Masked for removal in 60 days, bug 502168.
app-emacs/delicious

# Ulrich Müller <ulm@gentoo.org> (24 Feb 2014)
# Does not work any more, AOL has shut off
# the TOC2 protocol for the AIM service.
# Masked for removal in 30 days, bug 502322.
app-emacs/tnt

# Ulrich Müller <ulm@gentoo.org> (21 Feb 2014)
# Included with Emacs since version 23.
# Last stand-alone release in 2008.
# Masked for removal in 30 days, bug 501964.
app-emacs/mairix

# Ulrich Müller <ulm@gentoo.org> (20 Feb 2014)
# Abandoned by upstream: Last release in 2003, last visible
# upstream activity in 2004. Does not work with Emacs 24.
# File a bug for moving app-emacs/oddmuse (currently in emacs
# overlay) to the main tree if you need a replacement.
# Masked for removal in 30 days, bug 501926.
app-emacs/http-emacs

# Ulrich Müller <ulm@gentoo.org> (15 Feb 2014)
# Support library for app-emacs/prime-el, which is masked
# for removal itself. No other reverse dependencies.
# Masked for removal in 30 days, bug 501426.
app-emacs/mell

# Michał Górny <mgorny@gentoo.org> (28 Feb 2014)
# New multilib conversions for testing, grouped with corresponding
# emul-linux bumps. Please unmask in order, after getting ACK from
# package maintainer.
#
# Notes:
# - yngwin explicitly requested 30 days + 1 version bump for cairo.
# - always unmask in order, with emul-linux of choice and *all* packages
# preceding it
>=dev-libs/libgcrypt-1.6.1-r1
dev-libs/libgcrypt:11
>=dev-libs/lzo-2.06-r1
>=app-emulation/emul-linux-x86-baselibs-20131008-r20
>=dev-libs/libxslt-1.1.28-r2
>=app-emulation/emul-linux-x86-baselibs-20131008-r21
>=x11-libs/cairo-1.12.16-r1
>=app-emulation/emul-linux-x86-gtklibs-20131008-r2
>=x11-libs/gdk-pixbuf-2.30.6-r1
>=app-emulation/emul-linux-x86-gtklibs-20131008-r3
>=media-gfx/graphite2-1.2.4-r1
>=media-libs/freetype-2.5.3-r1
>=media-libs/harfbuzz-0.9.26-r1
>=media-libs/libass-0.11
>=x11-libs/pango-1.36.2-r1
>=x11-libs/pangox-compat-0.0.2-r1
>=app-emulation/emul-linux-x86-gtklibs-20131008-r4

# Pawel Hajdan jr <phajdan.jr@gentoo.org> (27 Feb 2014)
# Dev channel releases are only for people who are developers or want more
# experimental features and accept a more unstable release.
>=www-client/chromium-35

# Michael Palimaka <kensington@gentoo.org> (26 Feb 2014)
# Doesn't build with recent graphviz. Dead upstream.
# Masked for removal in 30 days. Bug #491760.
media-gfx/kgraphviewer

# Michał Górny <mgorny@gentoo.org> (25 Feb 2014)
# Mask for testing.
>=sys-apps/systemd-210
>=sys-apps/systemd-sysv-utils-210

# Tom Wijsman <TomWij@gentoo.org> (21 Feb 2014)
# MATE Desktop Environment 1.6 introduction mask:
#
# MATE is in the progress of being brought to the Portage tree; if you see this
# mask message when you install it from the Portage tree, we suggest you to
# wait a few days until MATE has been fully brought to the Portage tree.
#
# New ebuild request bug:
#
#     https://bugs.gentoo.org/show_bug.cgi?id=387487
#
# MATE overlay users that see this message can use the following package.unmask:
#
#     https://gist.github.com/TomWij/cf9cdd0fe90ac08b8ded
#
# If you use another overlay, replace the ::mate-overlay suffix by that overlay.
app-arch/mate-file-archiver
app-editors/mate-text-editor
app-text/mate-doc-utils
app-text/mate-document-viewer
dev-libs/libmateweather
dev-python/python-caja
mate-base/libmatekbd
mate-base/mate-applets
mate-base/mate-common
mate-base/mate-desktop
mate-base/mate-file-manager
mate-base/mate-menus
mate-base/mate-panel
mate-base/mate-session-manager
mate-base/mate-settings-daemon
mate-extra/caja-dropbox
mate-extra/mate-calc
mate-extra/mate-character-map
mate-extra/mate-dialogs
mate-extra/mate-file-manager-image-converter
mate-extra/mate-file-manager-open-terminal
mate-extra/mate-file-manager-sendto
mate-extra/mate-file-manager-share
mate-extra/mate-polkit
mate-extra/mate-power-manager
mate-extra/mate-screensaver
mate-extra/mate-sensors-applet
mate-extra/mate-system-monitor
mate-extra/mate-utils
media-gfx/mate-image-viewer
net-analyzer/mate-netspeed
net-wireless/mate-bluetooth
x11-libs/libmatewnck
x11-misc/mate-menu-editor
x11-misc/mate-notification-daemon
x11-terms/mate-terminal
x11-themes/mate-backgrounds
x11-themes/mate-icon-theme
x11-themes/mate-icon-theme-faenza
x11-themes/mate-themes
x11-wm/mate-window-manager

# Tom Wijsman <TomWij@gentoo.org> (21 Feb 2014)
# MATE Desktop Environment >=1.7 introduction mask:
#
# Given that MATE Desktop Environment 1.8 will release soon, this mask is
# placed in advance to allow to bump to it as soon as it hits.
>=app-arch/mate-file-archiver-1.7
>=app-editors/mate-text-editor-1.7
>=app-text/mate-doc-utils-1.7
>=app-text/mate-document-viewer-1.7
>=dev-libs/libmateweather-1.7
>=dev-python/python-caja-1.7
>=mate-base/libmatekbd-1.7
>=mate-base/mate-applets-1.7
>=mate-base/mate-common-1.7
>=mate-base/mate-desktop-1.7
>=mate-base/mate-file-manager-1.7
>=mate-base/mate-menus-1.7
>=mate-base/mate-panel-1.7
>=mate-base/mate-session-manager-1.7
>=mate-base/mate-settings-daemon-1.7
>=mate-extra/caja-dropbox-0.7.2
>=mate-extra/mate-calc-1.7
>=mate-extra/mate-character-map-1.7
>=mate-extra/mate-dialogs-1.7
>=mate-extra/mate-file-manager-image-converter-1.7
>=mate-extra/mate-file-manager-open-terminal-1.7
>=mate-extra/mate-file-manager-sendto-1.7
>=mate-extra/mate-file-manager-share-1.7
>=mate-extra/mate-polkit-1.7
>=mate-extra/mate-power-manager-1.7
>=mate-extra/mate-screensaver-1.7
>=mate-extra/mate-sensors-applet-1.7
>=mate-extra/mate-system-monitor-1.7
>=mate-extra/mate-utils-1.7
>=media-gfx/mate-image-viewer-1.7
>=net-analyzer/mate-netspeed-1.7
>=net-wireless/mate-bluetooth-1.7
>=x11-libs/libmatewnck-1.7
>=x11-misc/mate-menu-editor-1.7
>=x11-misc/mate-notification-daemon-1.7
>=x11-terms/mate-terminal-1.7
>=x11-themes/mate-backgrounds-1.7
>=x11-themes/mate-icon-theme-1.7
>=x11-themes/mate-icon-theme-faenza-1.7
>=x11-themes/mate-themes-1.7
>=x11-wm/mate-window-manager-1.7

# Luca Barbato <lu_zero@gentoo.org> (20 Feb 2014)
# Beta ebuild, unmask to test the tree.
~media-video/libav-10_beta1

# Tom Wijsman <TomWij@gentoo.org> (19 Feb 2014)
# Masked for removal in 30 days, as this is an old revision that stuck behind;
# however we are not sure if it is kept for a reason, if it is then please let
# me know such that we can continue to keep it around. Guess nobody even still
# uses this package either, but that's for another day...
=dev-java/jikes-1.22-r1

# Mike Gilbert <floppym@gentoo.org> (17 Feb 2014)
# Masked for testing.
dev-lang/python:3.4

# Eray Aslan <eras@gentoo.org> (17 Feb 2014)
# Security mask - bug #492494 until
# mail-filter/dovecot-antispam and
# mail-filter/dovecot_deleted_to_trash are punted/fixed
=net-mail/dovecot-2.0*
=net-mail/dovecot-2.1*
<mail-filter/dovecot_deleted_to_trash-0.5-r1

# Jeroen Roovers <jer@gentoo.org> (16 Feb 2014)
# Unmaintained, has several problems on modern systems,
# superseded by net-analyzer/ifstatus (bug #501432)
net-analyzer/ethstatus

# Dion Moult <moult@gentoo.org> (13 Feb 2014)
# Masked for removal in 30 days. Unclear license, desklets dead. (bug #446776)
x11-plugins/desklet-sudoku

# Dion Moult <moult@gentoo.org> (12 Feb 2014)
# Masked for removal in 30 days. Removed as this was a compatibility hack
# package, with equivalent functionality already implemented elsewhere (xdg-open
# and co). (bug #480522)
www-client/htmlview

# Dion Moult <moult@gentoo.org> (10 Feb 2014)
# Masked for removal in 30 days. Upstream dead for ages, no package maintainer.
# (bug #471548)
rox-extra/comicthumb

# Joerg Bornkessel <hd_brummy@gentoo.org> (08 Feb 2014)
# removal ~08/Mar/2014 , depend on i18n issues
# wrt bug #424255
media-plugins/vdr-amarok

# Tim Harder <radhermit@gentoo.org> (04 Feb 2014)
# Masked for testing
=media-sound/lilypond-2.19*

# Mike Gilbert <floppym@gentoo.org> (29 Jan 2014)
# I suspect this package is not used. If you are using it, please contact me.
# Otherwise, it will be removed in 30 days.
dev-python/mozrunner
dev-python/mozinfo
dev-python/mozprofile
dev-python/mozprocess
dev-python/mozfile

# Naohiro Aota <naota@gentoo.org> (29 Jan 2014)
# Mask for removal in 30 days. No ruby19 support. #464286
app-i18n/prime
app-emacs/prime-el
app-i18n/gtkimprime
app-i18n/scim-prime
dev-libs/suikyo

# Ole Markus With <olemarkus@gentoo.org> (28 Jan 2014)
# PHP 5.6 still in early development
>=dev-lang/php-5.6

# Dion Moult <moult@gentoo.org> (27 Jan 2014)
# Mask for removal in 30 days. Used to be used by farsight1 but no longer. No
# other reverse deps. (bug #489550)
dev-libs/jrtplib

# Mike Gilbert <floppym@gentoo.org> (26 Jan 2014)
# Python library that has no reverse deps. Removal in 30 days.
dev-python/certifi

# Samuli Suominen <ssuominen@gentoo.org> (24 Jan 2014)
# Roll ~arch version back from .so.9 to .so.8 due to too many unresolved issues.
# See http://bugs.gentoo.org/479818 for progress.
>=media-libs/jpeg-9

# Christian Ruppert <idl0r@gentoo.org> (19 Jan 2014)
# Experimental, for now
=dev-vcs/gitolite-gentoo-3*

# Dion Moult <moult@gentoo.org> (19 Jan 2014)
# Mask for removal in 30 days. Packages now depend on dev-lang/mono directly and
# not on virtual/monodoc (bug #471180)
virtual/monodoc

# Dion Moult <moult@gentoo.org> (19 Jan 2014)
# Mask for removal in 30 days. Flyte service discontinued so package is useless.
# (bug #495138)
app-misc/flyte-download-manager

# Mike Gilbert <floppym@gentoo.org> (19 Jan 2014)
# To prevent accidental switching of release channels (bug 498306),
# google-chrome has been split into 3 packages:
#
# www-client/google-chrome
# www-client/google-chrome-beta
# www-client/google-chrome-unstable
#
# The stable channel remains as www-client/google-chrome, but has been
# switched to SLOT="0".
#
# Please unmerge your currently installed version and remerge one of the new
# packages.
www-client/google-chrome:beta
www-client/google-chrome:stable
www-client/google-chrome:unstable

# Eray Aslan <eras@gentoo.org> (18 Jan 2014)
# Mask experimental software
=mail-mta/postfix-2.12*

# Alexis Ballier <aballier@gentoo.org> (18 Jan 2014)
# Rev. deps fail to build
>=media-libs/aubio-0.4

# Michael Sterrett <mr_bones_@gentoo.org> (16 Jan 2014)
# testing mask for 3.5.x releases
>=app-admin/syslog-ng-3.5

# Michał Górny <mgorny@gentoo.org> (15 Jan 2014)
# Multilib conversion and Python support code seriously broken.
# Has dependencies that are not converted to multilib yet.
# Do not unmask without prior review from multilib@g.o.
# https://bugs.gentoo.org/show_bug.cgi?id=474654#c5
=media-gfx/exiv2-0.23-r2

# Tony Vroon <chainsaw@gentoo.org> (13 Jan 2014)
# Asterisk 12 is a short term "standard" release
# containing significant architectural changes.
# This is not for your production kit quite yet.
=net-misc/asterisk-12*

# Magnus Granberg <zorry@gentoo.org>
# Gcc 4.8.2-r1 has default ssp and need testing,
# See #484714
=sys-devel/gcc-4.8.2-r1

# Tom Wijsman <TomWij@gentoo.org> (09 Jan 2014)
# Monolithic dev-dotnet/{gnome,gtk}-sharp introduction mask, see bug #382491.
>=dev-dotnet/gnome-sharp-2.24.2-r1
>=dev-dotnet/gtk-sharp-2.12.21

# Pacho Ramos <pacho@gentoo.org> (02 Jan 2014)
# Breaks reverse dependencies and upstream don't want us
# to use it (#483562)
=media-libs/libopenraw-0.1.0_pre20130826

# Tom Wijsman <TomWij@gentoo.org> (31 Dec 2013)
# [QA] Mask LIVEVCS.unmasked versions of docker, newer versions are available.
<=app-emulation/docker-0.7.0

# Sergey Popov <pinkbyte@gentoo.org> (31 Dec 2013)
# Security mask of vulnerable versions, wrt bug #455464
<dev-libs/boost-1.52.0-r6
<dev-util/boost-build-1.52.0

# Julian Ospald <hasufell@gentoo.org> (30 Dec 2013)
# breaks every consumer
=dev-games/ogre-1.9.0

# Samuli Suominen <ssuominen@gentoo.org> (25 Dec 2013)
# The required icons from faenza-xfce-icon-theme are now part of
# the faenza-icon-theme itself for a long time now.
# Removal in 30 days.
x11-themes/faenza-xfce-icon-theme

# Luca Barbato <lu_zero@gentoo.org> (18 Dec 2013)
# Alpha ebuild, unmask to test the tree.
~media-video/libav-10_alpha1

# Michał Górny <mgorny@gentoo.org> (15 Dec 2013)
# Masked for testing due to almost complete redesign. It is now
# completely split and no longer has an integrated GUI. Currently,
# the only working GUI is the PyQt4 GUI and it has license issues
# (bug #494524).
>=games-emulation/mupen64plus-2
games-emulation/mupen64plus-core
games-emulation/mupen64plus-audio-sdl
games-emulation/mupen64plus-input-sdl
games-emulation/mupen64plus-rsp-hle
games-emulation/mupen64plus-ui-console
games-emulation/mupen64plus-video-glide64mk2
games-emulation/mupen64plus-video-rice
games-emulation/m64py

# Doug Goldstein <cardoe@gentoo.org> (30 Nov 2013)
# Masked for removal in 30 days. please upgrade to >=0.26
<media-tv/mythtv-0.26
<media-plugins/mythplugins-0.26
<www-apps/mythweb-0.26

# Ben de Groot <yngwin@gentoo.org> (11 Nov 2013)
# Mask older roboto versions to give users a regular upgrade path
# now that we've switched to upstream versioning
>media-fonts/roboto-9999

# Luca Barbato <lu_zero@gentoo.org> (03 Nov 2013)
# Multilib ready ebuild, some deps missing.
=media-video/libav-0.8.9-r1
=media-video/libav-9.10-r1
=media-video/libav-10_alpha1-r1

# Lars Wendler <polynomial-c@gentoo.org> (28 Oct 2013)
# Masked alpha releases for testing.
=app-arch/xz-utils-5.1*

# Tiziano Müller <dev-zero@gentoo.org> (24 Oct 2013)
# Mask mainline version branch
=www-servers/nginx-1.5*

# Davide Pesavento <pesa@gentoo.org> (23 Oct 2013)
# Some features require Qt 5.2, which is not in tree yet.
=dev-qt/qt-creator-3*

# Stanislav Ochotnicky <sochotnicky@gentoo.org (14 Oct 2013)
# Mask live ebuild of sys-fs/simple-mtpfs (#488038)
=sys-fs/simple-mtpfs-9999

# Justin Lecher <jlec@gentoo.org> (14 Oct 2013)
# Seems to break all deps - API change?
>=sci-libs/metis-5

# Diego Elio Pettenò <flameeyes@gentoo.org> (13 Oct 2013)
# Requires a NPN support in mod_ssl (www-server/apache) to work.
# See #471512 for more details.
www-apache/mod_spdy

# Markos Chandras <hwoarang@gentoo.org> (10 Oct 2013)
# Masked for futher testing with various pam setups
=x11-misc/lightdm-1.9*

# Agostino Sarubbo <ago@gentoo.org> (23 Sep 2013)
# Masked because of vulnerable versions
# DO NOT REMOVE OLDER VERSIONS
# temporarily disabled as it also breaks s390 keywording
#<net-nds/openldap-2.4.35

# Tom Wijsman <TomWij@gentoo.org> (18 Sep 2013)
# Temporarily masked due to QA issue during attempts to unbundle dependencies;
# we need to check the jar contents to check for differences, especially the
# stax dependency seems to be problematic in this regard but we'll check all of
# them to ensure that unbundling doesn't hurt some missed functionality.
# Bug #471942 tracks the progress of these unbundling efforts.
>=app-admin/ec2-api-tools-1.6.7.2-r4

# Sergey Popov <pinkbyte@gentoo.org> (18 Sep 2013)
# Mask development releases of botan:
# - causes many API breakages
# - do not compile in some USE-flag combinations
# - requires at least gcc 4.7(and possibly even 4.8 for some features)
>=dev-libs/botan-1.11.0

# Agostino Sarubbo <ago@gentoo.org> (29 Aug 2013)
# Mask 5.1 series because the backport of the CVE-2012-5627
# has not be done. bug #446240 comment 2
=dev-db/mariadb-5.1.67

# Patrick Lauer <patrick@gentoo.org> (19 Aug 2013)
# Masking live ebuilds
=www-apps/trac-mercurial-1.0.0.3_pre20130206

# Tom Wijsman <TomWij@gentoo.org> (15 Aug 2013)
# Dependencies are unable to satisfy current version,
# broken; needs a version bump from bug #475552.
dev-java/itext:5

# Ian Delaney <idella4@gentoo.org> (01 Aug 2013)
# Mask while awaiting bump to dep Djblets-0.7.16
=dev-util/reviewboard-1.7.12

# Jeroen Roovers <jer@gentoo.org> (31 Jul 2013)
# Needs >=dev-lang/lua-5.2
~net-analyzer/nmap-6.40

# Tim Harder <radhermit@gentoo.org> (26 Jul 2013)
# Masked for testing
=sys-devel/bison-3*

# Julian Ospald <hasufell@gentoo.org> (21 Jul 2013)
# Mask all unfetchable versions and those with tons of random
# bugs and segfaults (all). Don't ask for a version bump unless
# there is a working release.
sci-geosciences/googleearth

# Alexis Ballier <aballier@gentoo.org> (20 Jul 2013)
# New major release and lots of packages fail to build.
# Tracker bug is: https://bugs.gentoo.org/show_bug.cgi?id=476490
>=media-video/ffmpeg-2.0

# Chris Reffett <creffett@gentoo.org> (20 Jul 2013)
# Uses vulnerable versions of bzip2, but these versions are
# necessary to reconstruct older archives. Use at your own risk.
=app-portage/deltup-0.4.5

# Michael Weber <xmw@gentoo.org> (17 Jul 2013)
# Upstream next versions
>=sys-kernel/raspberrypi-image-3.7_pre
>=sys-kernel/raspberrypi-sources-3.7_pre
>=sys-boot/raspberrypi-firmware-1_pre

# Sergey Popov <pinkbyte@gentoo.org> (12 Jul 2013)
# Probably new versions will work with hexchat too.
# Do not lastrite this, just leave mask by Lars Wendler's request.
net-irc/xchat-otr

# Michael Weber <xmw@gentoo.org> (9 Jul 2013)
# Masked for security bug 450746, CVE-2012-6095
<net-ftp/proftpd-1.3.4c

# Tom Wijsman <TomWij@gentoo.org> (30 Jun 2013)
# Sun JDK and JRE contain critical vulnerabilities and receive no further
# updates; masking to make users aware of this, users that still need this
# package and have no alternative can unmask at their own risk. See bug #473830.
#
# This is continued by Oracle Corporation, which has acquired Sun Microsystems
# in early 2010; as per http://en.wikipedia.org/wiki/Sun_acquisition_by_Oracle
#
# Users are suggested to upgrade to one of the newer Oracle packages like
# dev-java/oracle-jdk-bin or dev-java/oracle/jre-bin or choose another
# alternative we provide; eg. the IBM JDK/JRE or the open source IcedTea.
#
# Most of these packages provide a jce USE flag for those whom need the
# Java Cryptographic Extension Unlimited Strength Policy USE flag; whether that
# works depends from VM to VM, it seems to work for most except for the IBM VMs.
dev-java/sun-jdk
dev-java/sun-jre-bin
dev-java/sun-jce-bin

# Julian Ospald <hasufell@gentoo.org> (26 Jun 2013)
# Depends on masked dev-lang/lua-5.2
>=games-emulation/sdlmame-0.149
>=games-emulation/sdlmess-0.149

# Chí-Thanh Christopher Nguyễn <chithanh@gentoo.org> (25 Jun 2013)
# Mask new ptlib/opal for breakage, tracked in bug #474742
=net-libs/ptlib-2.12.4
=net-libs/opal-3.12.4

# Sebastien Fabbro <bicatali@gentoo.org> (18 Jun 2013)
# Masked for some API incompatibility with previous versions
# until depedencies are fixed.
>=sci-mathematics/glpk-4.49

# Pacho Ramos <pacho@gentoo.org> (15 Jun 2013)
# Upstream stalled, improper rendering (#470818),
# use app-editors/efte instead.
=app-editors/fte-20110708

# Patrick Lauer <patrick@gentoo.org> (21 May 2013)
# broken dependencies -> uninstallable #470712
app-portage/g-ctan

# Markos Chandras <hwoarang@gentoo.org> (28 Apr 2013)
# Early release of pcmanfm Qt4 port
x11-misc/pcmanfm-qt

# Michael Weber <xmw@gentoo.org> (18 Apr 2013)
# Masked due test failures
=app-arch/advancecomp-1.17

# Patrick Lauer <patrick@gentoo.org> (09 Apr 2013)
# Masked to get 0.10 tested
=net-libs/nodejs-0.11*

# Sergey Popov <pinkbyte@gentoo.org> (02 Apr 2013)
# Masking =media-libs/ffmpegsource-2.17.4_pre753
# by maintainer's request.
# This version does not work properly, see bug #464078
=media-libs/ffmpegsource-2.17.4_pre753

# Markos Chandras <hwoarang@gentoo.org> (23 Mar 2013)
# MSN service terminated.
# You can still use your MSN account in net-im/skype
# or switch to an open protocol instead
# These clients may work until Oct 2013 (or even longer in China)
net-im/kmess
net-im/amsn
x11-themes/amsn-skins

# Richard Freeman <rich0@gentoo.org> (24 Mar 2013)
# Contains known buffer overflows.  Package generally works
# but should not be fed untrusted input (eg from strangers).
# Masked to ensure users are aware before they install.
app-text/cuneiform

# Tom Wijsman <TomWij@gentoo.org> (12 Mar 2013)
# 2.5.* has known security and other issues due to an affected
# bundled ffmpeg, see bugs #446468 and #444262.
<media-video/avidemux-2.6.2

# Julian Ospald <hasufell@gentoo.org> (10 Mar 2013)
# Unsupported and full of bundled libs. Only left
# for people who don't have python-3.3 yet.
# Will be removed once python-3.3 and >=blender-2.66 enter ~arch.
=media-gfx/blender-2.64a
media-gfx/yablex

# Tim Harder <radhermit@gentoo.org> (07 Mar 2013)
# Masked for testing
=dev-java/jython-2.7*

# Davide Pesavento <pesa@gentoo.org> (02 Mar 2013)
# Depends on blender, which is masked.
media-gfx/yafaray

# Doug Goldstein <cardoe@gentoo.org> (22 Jan 2013)
# Masked for development
=sys-block/open-iscsi-2.0.873

# Jeroen Roovers <jer@gentoo.org> (09 Jan 2013)
# Testing branch, unstable upstream
>net-nntp/tin-2.1

# Sergei Trofimovich <slyfox@gentoo.org> (05 Jan 2013)
# Masked for testing. Is not compatible with cvsps-2 (bug #450424).
# But can be used on it's own! Try 'cvsps --fast-export'.
>=dev-vcs/cvsps-3

# Christian Ruppert <idl0r@gentoo.org> (22 Dec 2012)
# Experimental
=net-proxy/haproxy-1.5*

# Sven Wegener <swegener@gentoo.org> (21 Dec 2012)
# temporary mask for socket location change
=app-misc/screen-4.0.3-r8

# Rick Farina <zerochaos@gentoo.org> (21 Dec 2012)
# madwifi has been replaced by ath5k and ath9k in kernel
# drivers and is subject to numerous long standing bugs
# stable wpa_supplicant sometimes wants madwifi-ng-tools
#net-wireless/madwifi-ng-tools
net-wireless/madwifi-ng

# Tim Harder <radhermit@gentoo.org> (27 Nov 2012)
# Masked for testing
=media-libs/libsfml-2*

# Robin H. Johnson <robbat2@gentoo.org> (18 Nov 2012)
# Dead upstream, replaced by gitolite
dev-vcs/gitosis
dev-vcs/gitosis-gentoo

# Joerg Bornkessel <hd_brummy@gentoo.org> (04 Nov 2012)
# masked for testing, bug #422605
=media-plugins/vdr-softdevice-0.5.0.20110417

# Markos Chandras <hwoarang@gentoo.org> (03 Nov 2012)
# Masked for testing
app-benchmarks/ltp

# Alexis Ballier <aballier@gentoo.org> (1 Nov 2012)
# Still requires ocaml-3, mask it until it is ported. If this does not happen in
# the near future, we should consider removing it.
dev-ml/ocamlduce

# Pacho Ramos <pacho@gentoo.org> (25 Oct 2012)
# obexd changed its API without any warning, it's recommended to ship
# 0.46 until https://bugzilla.gnome.org/682106 is fixed to prevent
# bluetooth-sendto breakage.
>=app-mobilephone/obexd-0.47

# Eray Aslan <eras@gentoo.org> (24 Oct 2012)
# Mask experimental software
=mail-client/squirrelmail-1.4.23*

# Michael Palimaka <kensington@gentoo.org> (19 Oct 2012)
# New major release breaks almost all existing consumers.
# Bug #478052
# Masked until each package can update its dependencies.
>=net-libs/libotr-4.0.0
>=x11-plugins/pidgin-otr-4.0.0

# Robin H. Johnson <robbat2@gentoo.org> (08 Oct 2012)
# Masked for testing
=sys-libs/db-6.0*
=sys-libs/db-5.3*
=sys-libs/db-5.2*
=sys-libs/db-5.1*
=sys-libs/db-5.0*

# Richard Yao <ryao@gentoo.org> (06 Oct 2012)
# sys-apps/grep-2.13 falsely reports some files as binary, causing build
# failures. Bug #425668
=sys-apps/grep-2.13

# Ralph Sennhauser <sera@gentoo.org> (18 Jul 2012)
# Unmaintained, multiple vulnarabilities. #351626
# A more recent source build maintained by the community is available in the
# seden overlay. A more recent binary is available in the java-overlay.
<=dev-util/eclipse-sdk-3.5.1-r1

# Michael Weber <xmw@gentoo.org> (07 Jul 2012)
# Masked for testing only beta (bug 424866)
=sci-electronics/eagle-6.2.1_beta

# Ian Stakenvicius <axs@gentoo.org> (19 Jun 2012)
# Mask new spidermonkeys until rdeps can accept it
# 1.8.7 will be masked indefinitely and will be removed
# from the tree soon.
~dev-lang/spidermonkey-1.8.7

# Michael Weber <xmw@gentoo.org> (13 Jun 2012)
# Mask beta versions for testing
>sci-electronics/magic-8

# Alexandre Rostovtsev <tetromino@gentoo.org> (20 May 2012)
# Requires dev-scheme/guile-2.0.5 which is in lisp overlay and masked;
# bug #416683
>=games-board/aisleriot-3.3.1

# Ultrabug <ultrabug@gentoo.org> (16 May 2012)
# Masked for testing
>=sys-cluster/corosync-2.0.0

# Johannes Huber <johu@gentoo.org> (03 May 2012)
# Unstable dev channel release. Fixes build with gcc47
# (bug #413941).
>=media-sound/mp3diags-1.1

# Robin H. Johnson <robbat2@gentoo.org> (09 Feb 2012)
# Needs to be slotted better
=dev-libs/yaz-4*

# Maxim Koltsov <maksbotan@gentoo.org> (19 Apr 2012)
# Broken, masking by maintainer's request
app-leechcraft/lc-lcftp

# Jeroen Roovers <jer@gentoo.org> (04 Apr 2012)
# Alpha versions of dev-libs/libevent are considered unstable
>dev-libs/libevent-2.1

# Andreas K. Huettel <dilfridge@gentoo.org> (22 Mar 2012)
# Even its author admits that it's an ugly hack. Crashes e.g.
# firefox with kde-4.8. Unmask at your own risk.
kde-misc/kgtk

# Samuli Suominen <ssuominen@gentoo.org> (06 Mar 2012)
# Masked for testing since this is known to break nearly
# every reverse dependency wrt bug 407091
>=dev-lang/lua-5.2.0

# Jeroen Roovers <jer@gentoo.org> (27 Mar 2012)
# Opera Next and Opera snapshots are unsupported and eternally unstable.
# <http://my.opera.com/desktopteam/blog>
www-client/opera-next

# Ulrich Müller <ulm@gentoo.org> (13 Dec 2011)
# SLOTs 21 and 22 of app-editors/emacs, corresponding to
# GNU Emacs versions 21.4 and 22.3. These versions were
# released in February 2005 and September 2008, respectively.
# Please upgrade to >=app-editors/emacs-23 and update your
# Emacs Lisp packages with emacs-updater.
# Keeping these versions in the tree masked indefinitely,
# by popular request. Bug 394589.
=app-editors/emacs-21*
=app-editors/emacs-22*
~virtual/emacs-21
~virtual/emacs-22

# Diego E. Pettenò <flameeyes@gentoo.org> (30 Oct 2011)
# Working on more reliable versioning, consider experimental for now.
#
# Rafael G. Martins <rafaelmartins@gentoo.org> (27 May 2013)
# Remove generic mask. These versions will be removed later.
=dev-lang/luajit-2.0.0_beta8_p1
=dev-lang/luajit-2.0.0_beta10
=dev-lang/luajit-2.0.0

# Samuli Suominen <ssuominen@gentoo.org> (30 Oct 2011)
# Masked for security bug #294253, use only at your own risk!
=media-libs/fmod-3*
games-puzzle/candycrisis
games-simulation/stoned-bin
games-sports/racer-bin
games-strategy/dark-oberon
games-strategy/savage-bin

# MATSUU Takuto <matsuu@gentoo.org> (27 Oct 2011)
# Mask for testing
>=sys-devel/distcc-3.2_rc1

# Justin Bronder <jsbronder@gentoo.org> (27 Sep 2011)
# Masking the torque 2.3 series due to bug #372959.  This allows
# sites that are ok with the vulnerability but prefer the stability
# of 2.3.x to continue to get updates (if any).
dev-perl/perl-PBS

# Alexis Ballier <aballier@gentoo.org> (20 Aug 2011)
# dev-tex/pdftex-1.40.11 is 100% identical to the one in TeX Live 2010;
# TeX Live 2011 has a newer version, which makes the standalone package useless;
# mask it for now, we'll see about removing it later.
dev-tex/pdftex

# Peter Volkov <pva@gentoo.org> (23 Jul 2011)
# Mask release candidates
=dev-libs/guiloader-2.99.0
=dev-libs/guiloader-c++-2.99.0
=dev-util/crow-designer-2.99.0

# Justin Lecher <jlec@gentoo.org> (27 Jun 2011)
# Only avalable version isn't in the tree.
# Mask until it is bumped
sci-chemistry/webmo

# Torsten Veller <tove@gentoo.org> (18 Jun 2011)
# Mask perl-5.14. See tracker bug #356171
=dev-lang/perl-5.14*

# Marijn Schouten <hkBst@gentoo.org> (07 April 2011)
# Masked for number of issues, but can be used to
# test against if people are impatient ;P
# Known issues:
# - Broken emacs support (ulm has promised to look)
# - doesn't build when boehm-gc is built without threads
# - no SLOTting yet!
=dev-scheme/guile-2.0.0

# Christian Faulhammer <fauli@gentoo.org> (12 Mar 2011)
# Mask for testing
>=www-apps/joomla-1.6.0

# Ryan Hill <dirtyepic@gentoo.org> (30 Mar 2011)
# Masked indefinitely (until 0.40 is released).
# http://bugs.gentoo.org/354423
>=app-pda/libopensync-0.30
>=app-pda/libopensync-plugin-file-0.30
>=app-pda/libopensync-plugin-irmc-0.30
>=app-pda/libopensync-plugin-palm-0.30
>=app-pda/libopensync-plugin-python-0.30
app-pda/libopensync-plugin-syncml
app-pda/libopensync-plugin-vformat
app-pda/osynctool

# Ryan Hill <dirtyepic@gentoo.org> (30 Mar 2011)
# Work in progress
# http://bugs.gentoo.org/show_bug.cgi?id=354423
app-pda/libopensync-plugin-evolution2
app-pda/libopensync-plugin-gnokii
app-pda/libopensync-plugin-gpe
app-pda/multisync-gui

# Michael Sterrett <mr_bones_@gentoo.org> (20 Jan 2010)
# testing mask for upcoming exult release
>=games-engines/exult-1.3

# Markos Chandras <hwoarang@gentoo.org> (01 Nov 2010)
# Masking alpha releases
net-analyzer/ncrack

# Luca Barbato <lu_zero@gentoo.org> (21 Jul 2010)
# Not ready for public consumption, clashes with current mesa-git
media-libs/shivavg

# Stefan Briesenick <sbriesen@gentoo.org> (21 Jul 2010)
# doesn't compile against latest media-libs/spandsp.
# not needed anymore for Asterisk 1.6.
net-misc/asterisk-spandsp_codec_g726

# Doug Goldstein <cardoe@gentoo.org> (07 Jul 2010)
# No actual Gentoo support yet. If you're interested, please see bug #295993
net-misc/netcf

# Robin H. Johnson <robbat2@gentoo.org> (09 Jun 2010)
# Fails to self-verify/sign in FIPS mode, pending upstream response before
# usage for GSoC project.
app-crypt/hmaccalc

# Patrick Lauer <patrick@gentoo.org> (07 Apr 2010)
# Lars Wendler <polynomial-c@gentoo.org> (14 Oct 2013)
# Keeping samba-4.0 masked until bug #447022 is fixed. 4.1 masked for testing.
=net-fs/samba-4.0*
=net-fs/samba-4.1*

# Mike Frysinger <vapier@gentoo.org> (07 Mar 2010)
# Very old packages that people should have upgraded away from
# long ago.  Courtesy mask ... time to upgrade.
# Added <sys-fs/e2fsprogs as well (halcy0n)
<sys-libs/e2fsprogs-libs-1.41.8
<sys-fs/e2fsprogs-1.41.9

# Robert Piasek <dagger@gentoo.org> (23 Feb 2010)
# Masking libmapi as it depends on masked samba4
>=net-libs/libmapi-0.9

# Peter Alfredsen <loki_val@gentoo.org> (21 Oct 2009)
# Masked because this needs a patch to be applied to portage
# to not install the kitchensink and everything else
# into /usr/src/debug with FEATURES=installsources
=dev-util/debugedit-4.4.6-r2

# Diego E. Pettenò <flameeyes@gmail.com> (09 Oct 2009)
# Untested yet; documented only in Russian, help is appreciated.
sys-auth/pam_keystore

# Diego E. Pettenò <flameeyes@gentoo.org> (08 Aug 2009)
#  on behalf of QA Team
#
# Mass-masking of live ebuilds; we cannot guarantee working state of
# live ebuilds, nor the availability of the server hosting them. As
# per QA team policy, all these need to be kept masked by default, if
# available in the tree.
~app-doc/devmanual-9999
=app-forensics/openscap-9999
~app-i18n/skk-jisyo-9999
=app-misc/mc-9999
~app-misc/screenfetch-9999
=app-misc/sleepyhead-9999
=app-pda/libsyncml-9999
=app-pda/libopensync-9999
=app-pda/osynctool-9999
=app-pda/libopensync-plugin-evolution2-9999
=app-pda/libopensync-plugin-file-9999
=app-pda/libopensync-plugin-gnokii-9999
=app-pda/libopensync-plugin-gpe-9999
=app-pda/libopensync-plugin-irmc-9999
=app-pda/libopensync-plugin-palm-9999
=app-pda/libopensync-plugin-python-9999
=app-pda/libopensync-plugin-syncml-9999
=app-pda/libopensync-plugin-vformat-9999
app-portage/layman-dbtools
=dev-embedded/openocd-9999
~dev-lang/jimtcl-9999
~dev-libs/libg15-9999
=net-print/cups-9999
~dev-util/buildbot-9999
~dev-util/buildbot-slave-9999
=net-im/kmess-9999
net-misc/netcomics-cvs
=media-plugins/vdr-xineliboutput-9999
=media-plugins/vdr-xvdr-9999
=sci-astronomy/casa-data-99999
=sys-fs/redirfs-9999
sys-kernel/zen-sources
=www-plugins/google-talkplugin-9999
~x11-wm/openbox-9999

# Andrey Grozin <grozin@gentoo.org> (09 Mar 2013)
# Unmasking gcl-2.6.10
<dev-lisp/gcl-2.6.9

# Jeremy Olexa <darkside@gentoo.org> (28 Jul 2009)
# On behalf of Robin H. Johnson <robbat2@gentoo.org>.
# These versions are vulnerable to GLSA's and should not be used. They will stay
# in the tree because they are useful to tracking down bugs. You have been
# warned. bug 271686
<dev-db/mysql-5.1.56
<virtual/mysql-5.1

# Tiziano Müller <dev-zero@gentoo.org> (08 Apr 2009)
# pre-releases
>=app-editors/gobby-0.4.91

# Paul Varner <fuzzyray@gentoo.org> (06 Apr 2009)
# Dead upstream and has issues with newer portages.
# Due to popular demand and no suitable replacement, it will stay in the tree
# in a masked status until it completely breaks or is replaced.
app-portage/udept

# Diego E. Pettenò <flameeyes@gentoo.org> (03 Jan 2009)
# These packages are not supposed to be merged directly, instead
# please use sys-devel/crossdev to install them.
dev-libs/cygwin
dev-util/mingw-runtime
dev-util/mingw64-runtime
dev-util/w32api
sys-libs/newlib
dev-embedded/msp430-binutils
dev-embedded/msp430-gcc
dev-embedded/msp430-gdb
dev-embedded/msp430-libc
dev-embedded/msp430mcu
dev-embedded/avr-libc

# Markus Ullmann <jokey@gentoo.org> (07 Jul 2008)
# mask for security bug #190667 (CVE-2007-{4584,5839})
# and for various other build problems (bug #425634)
#
# both CVEs are fixed in upstream version control as per:
# http://bitchx.svn.sourceforge.net/svnroot/bitchx/trunk/Changelog
net-irc/bitchx

# Vlastimil Babka <caster@gentoo.org> (20 May 2008)
# Masked for testing
app-arch/rpm5

# Chris Gianelloni <wolf31o2@gentoo.org> (03 Mar 2008)
# Masking due to security bug #194607 and security bug #204067
games-fps/doom3
games-fps/doom3-cdoom
games-fps/doom3-chextrek
games-fps/doom3-data
games-fps/doom3-demo
games-fps/doom3-ducttape
games-fps/doom3-eventhorizon
games-fps/doom3-hellcampaign
games-fps/doom3-inhell
games-fps/doom3-lms
games-fps/doom3-mitm
games-fps/doom3-phantasm
games-fps/doom3-roe
games-fps/quake4-bin
games-fps/quake4-data
games-fps/quake4-demo

# MATSUU Takuto <matsuu@gentoo.org> (05 Apr 2007)
# to be tested, seems unstable
>=app-i18n/scim-anthy-1.3.0

# Tavis Ormandy <taviso@gentoo.org> (21 Mar 2006)
# masked pending unresolved security issues #127167
games-roguelike/slashem

# Tavis Ormandy <taviso@gentoo.org> (21 Mar 2006)
# masked pending unresolved security issues #125902
games-roguelike/nethack
games-util/hearse

# Robin H. Johnson <robbat2@gentoo.org> (11 Feb 2006)
# zlib interaction is badly broken. See bug #124733.
=dev-vcs/cvs-1.12.13*

# <klieber@gentoo.org> (01 Apr 2004)
# The following packages contain a remotely-exploitable
# security vulnerability and have been hard masked accordingly.
#
# Please see http://bugs.gentoo.org/show_bug.cgi?id=44351 for more info
#
games-fps/unreal-tournament-goty
games-fps/unreal-tournament-strikeforce
games-fps/unreal-tournament-bonuspacks
games-fps/aaut
